…
Filtering / extracting / subsetting data frames based on attribute value

mtcars[which(mtcars$cyl == 4), "mpg"]
#>  [1] 22.8 24.4 22.8 32.4 30.4 33.9 21.5 27.3 26.0 30.4 21.4
subset(mtcars$mpg, mtcars$cyl == 4)
#>  [1] 22.8 24.4 22.8 32.4 30.4 33.9 21.5 27.3 26.0 30.4 21.4

Filtering for rows where at least one column is missing

dplyr::starwars %>% 
  dplyr::filter(dplyr::if_any(dplyr::everything(), ~is.na(.x)))
#> # A tibble: 58 x 14
#>    name    height  mass hair_color  skin_color eye_color birth_year sex   gender
#>    <chr>    <int> <dbl> <chr>       <chr>      <chr>          <dbl> <chr> <chr> 
#>  1 C-3PO      167    75 <NA>        gold       yellow           112 none  mascu~
#>  2 R2-D2       96    32 <NA>        white, bl~ red               33 none  mascu~
#>  3 R5-D4       97    32 <NA>        white, red red               NA none  mascu~
#>  4 Wilhuf~    180    NA auburn, gr~ fair       blue              64 male  mascu~
#>  5 Greedo     173    74 <NA>        green      black             44 male  mascu~
#>  6 Jabba ~    175  1358 <NA>        green-tan~ orange           600 herm~ mascu~
#>  7 Jek To~    180   110 brown       fair       blue              NA male  mascu~
#>  8 Yoda        66    17 white       green      brown            896 male  mascu~
#>  9 IG-88      200   140 none        metal      red               15 none  mascu~
#> 10 Mon Mo~    150    NA auburn      fair       blue              48 fema~ femin~
#> # ... with 48 more rows, and 5 more variables: homeworld <chr>, species <chr>,
#> #   films <list>, vehicles <list>, starships <list>
…
#filter output of names - or any other character vector
row.names(mtcars)[grepl("Merc",row.names(mtcars))]
#> [1] "Merc 240D"   "Merc 230"    "Merc 280"    "Merc 280C"   "Merc 450SE" 
#> [6] "Merc 450SL"  "Merc 450SLC"
names(mtcars)[grepl("c", names(mtcars))]
#> [1] "cyl"  "qsec" "carb"
grep("C", names(mtcars), ignore.case = TRUE, value = TRUE)
#> [1] "cyl"  "qsec" "carb"
grep("C", names(mtcars), ignore.case = TRUE, value = FALSE)
#> [1]  2  7 11

#Filter with dplyr where row cointains string
dplyr::filter(ggplot2::diamonds, grepl('Good', cut))
#> # A tibble: 16,988 x 10
#>    carat cut       color clarity depth table price     x     y     z
#>    <dbl> <ord>     <ord> <ord>   <dbl> <dbl> <int> <dbl> <dbl> <dbl>
#>  1  0.23 Good      E     VS1      56.9    65   327  4.05  4.07  2.31
#>  2  0.31 Good      J     SI2      63.3    58   335  4.34  4.35  2.75
#>  3  0.24 Very Good J     VVS2     62.8    57   336  3.94  3.96  2.48
#>  4  0.24 Very Good I     VVS1     62.3    57   336  3.95  3.98  2.47
#>  5  0.26 Very Good H     SI1      61.9    55   337  4.07  4.11  2.53
#>  6  0.23 Very Good H     VS1      59.4    61   338  4     4.05  2.39
#>  7  0.3  Good      J     SI1      64      55   339  4.25  4.28  2.73
#>  8  0.3  Good      J     SI1      63.4    54   351  4.23  4.29  2.7 
#>  9  0.3  Good      J     SI1      63.8    56   351  4.23  4.26  2.71
#> 10  0.3  Very Good J     SI1      62.7    59   351  4.21  4.27  2.66
#> # ... with 16,978 more rows
…
#filter column/attriubte names based on string
ggplot2::diamonds %>%
  dplyr::select_at(dplyr::vars(dplyr::contains('c')))
#> # A tibble: 53,940 x 5
#>    carat cut       color clarity price
#>    <dbl> <ord>     <ord> <ord>   <int>
#>  1  0.23 Ideal     E     SI2       326
#>  2  0.21 Premium   E     SI1       326
#>  3  0.23 Good      E     VS1       327
#>  4  0.29 Premium   I     VS2       334
#>  5  0.31 Good      J     SI2       335
#>  6  0.24 Very Good J     VVS2      336
#>  7  0.24 Very Good I     VVS1      336
#>  8  0.26 Very Good H     SI1       337
#>  9  0.22 Fair      E     VS2       337
#> 10  0.23 Very Good H     VS1       338
#> # ... with 53,930 more rows
…
Get class names of items in a dataframe/vector

sapply(mtcars, class)
#>       mpg       cyl      disp        hp      drat        wt      qsec        vs 
#> "numeric" "numeric" "numeric" "numeric" "numeric" "numeric" "numeric" "numeric" 
#>        am      gear      carb 
#> "numeric" "numeric" "numeric"

Printing more than default rows/columns from a table

mtcars %>% dplyr::as_tibble() %>% print(n=15, width = Inf)
#> # A tibble: 32 x 11
#>      mpg   cyl  disp    hp  drat    wt  qsec    vs    am  gear  carb
#>    <dbl> <dbl> <dbl> <dbl> <dbl> <dbl> <dbl> <dbl> <dbl> <dbl> <dbl>
#>  1  21       6  160    110  3.9   2.62  16.5     0     1     4     4
#>  2  21       6  160    110  3.9   2.88  17.0     0     1     4     4
#>  3  22.8     4  108     93  3.85  2.32  18.6     1     1     4     1
#>  4  21.4     6  258    110  3.08  3.22  19.4     1     0     3     1
#>  5  18.7     8  360    175  3.15  3.44  17.0     0     0     3     2
#>  6  18.1     6  225    105  2.76  3.46  20.2     1     0     3     1
#>  7  14.3     8  360    245  3.21  3.57  15.8     0     0     3     4
#>  8  24.4     4  147.    62  3.69  3.19  20       1     0     4     2
#>  9  22.8     4  141.    95  3.92  3.15  22.9     1     0     4     2
#> 10  19.2     6  168.   123  3.92  3.44  18.3     1     0     4     4
#> 11  17.8     6  168.   123  3.92  3.44  18.9     1     0     4     4
#> 12  16.4     8  276.   180  3.07  4.07  17.4     0     0     3     3
#> 13  17.3     8  276.   180  3.07  3.73  17.6     0     0     3     3
#> 14  15.2     8  276.   180  3.07  3.78  18       0     0     3     3
#> 15  10.4     8  472    205  2.93  5.25  18.0     0     0     3     4
#> # ... with 17 more rows
…
filter for records within last n years

works with dbplyr too
this is not a great example but I wanted it to work for at least a few more years.

hundred_years_ago <- lubridate::today() - lubridate::years(100)

nycflights13::flights %>% 
  dplyr::filter(time_hour >= hundred_years_ago)
#> # A tibble: 336,776 x 19
#>     year month   day dep_time sched_dep_time dep_delay arr_time sched_arr_time
#>    <int> <int> <int>    <int>          <int>     <dbl>    <int>          <int>
#>  1  2013     1     1      517            515         2      830            819
#>  2  2013     1     1      533            529         4      850            830
#>  3  2013     1     1      542            540         2      923            850
#>  4  2013     1     1      544            545        -1     1004           1022
#>  5  2013     1     1      554            600        -6      812            837
#>  6  2013     1     1      554            558        -4      740            728
#>  7  2013     1     1      555            600        -5      913            854
#>  8  2013     1     1      557            600        -3      709            723
#>  9  2013     1     1      557            600        -3      838            846
#> 10  2013     1     1      558            600        -2      753            745
#> # ... with 336,766 more rows, and 11 more variables: arr_delay <dbl>,
#> #   carrier <chr>, flight <int>, tailnum <chr>, origin <chr>, dest <chr>,
#> #   air_time <dbl>, distance <dbl>, hour <dbl>, minute <dbl>, time_hour <dttm>
…
