…
I do almost all of my analysis in R and this avoids fragmenting my work and thoughts across different tools.

Examples

Example 1: filter rows, and retrieve selected columns

dplyr::tbl(con, "##flights") %>%
  dplyr::filter(origin == "JFK", dest == "BQN" ) %>% 
  dplyr::select(flight, tailnum, dep_time, sched_dep_time,
                dep_delay) %>% 
  # I will remove the following line if exploring the data and
  # not interested in actually retrieving all records
  dplyr::collect() 

## # A tibble: 599 x 5
##    flight tailnum dep_time sched_dep_time dep_delay
##     <int> <chr>      <int>          <int>     <dbl>
##  1    839 N708JB        34           2359        35
##  2    939 N636JB       601            545        16
##  3    839 N505JB        57           2359        58
##  4    939 N633JB       556            545        11
##  5    839 N641JB       125           2359        86
##  6    939 N644JB       539            545        -6
##  7    839 N591JB        27           2359        28
##  8    939 N558JB       541            545        -4
##  9    939 N603JB       542            545        -3
## 10    839 N569JB      2357           2359        -2
## # ... with 589 more rows

Example 2: join across tables and retrieve selected columns

dplyr::tbl(con, "##flights") %>%
  dplyr::select(origin, dest, carrier, tailnum ) %>% 
  dplyr::left_join( #dplyr can join database tables 
    dplyr::tbl(con, "##airlines"), by = "carrier"
    ) %>% 
  mutate(airline = name) %>% 
  select(-carrier) %>% # only want the "human readable" airline name
  dplyr::collect()

## # A tibble: 336,776 x 5
##    origin dest  tailnum name                        airline                    
##    <chr>  <chr> <chr>   <chr>                       <chr>                      
##  1 JFK    PIT   N903XJ  Endeavor Air Inc.           Endeavor Air Inc.          
##  2 LGA    MCO   N981DL  Delta Air Lines Inc.        Delta Air Lines Inc.       
##  3 JFK    SEA   N703TW  Delta Air Lines Inc.        Delta Air Lines Inc.       
##  4 EWR    ATL   N329NB  Delta Air Lines Inc.        Delta Air Lines Inc.       
##  5 JFK    SFO   N527JB  JetBlue Airways             JetBlue Airways            
##  6 LGA    ATL   N308AT  AirTran Airways Corporation AirTran Airways Corporation
##  7 EWR    LAX   N528VA  Virgin America              Virgin America             
##  8 JFK    FLL   N216JB  JetBlue Airways             JetBlue Airways            
##  9 EWR    PBI   N53442  United Air Lines Inc.       United Air Lines Inc.      
## 10 JFK    DTW   N931XJ  Endeavor Air Inc.           Endeavor Air Inc.          
## # ... with 336,766 more rows
…
When I use this option

I use this option when I am reusing a fairly short, existing SQL query
with minor modifications.

Example 1: Simple selection of records using SQL syntax

query <- "SELECT  flight, tailnum, dep_time, origin, dest 
            FROM ##flights"

dplyr::tbl(con, dplyr::sql(query)) %>% 
  dplyr::collect()

## # A tibble: 336,776 x 5
##    flight tailnum dep_time origin dest 
##     <int> <chr>      <int> <chr>  <chr>
##  1   3433 N903XJ      1856 JFK    PIT  
##  2   1585 N981DL      1857 LGA    MCO  
##  3   1643 N703TW      1857 JFK    SEA  
##  4    926 N329NB      1857 EWR    ATL  
##  5    415 N527JB      1857 JFK    SFO  
##  6    771 N308AT      1858 LGA    ATL  
##  7    169 N528VA      1859 EWR    LAX  
##  8    201 N216JB      1900 JFK    FLL  
##  9   1417 N53442      1902 EWR    PBI  
## 10   3472 N931XJ      1903 JFK    DTW  
## # ... with 336,766 more rows

Example 2: Use dplyr syntax to enhance a raw SQL query

dplyr::tbl(con, dplyr::sql(query)) %>% #reuse query from previous example
  # add a filter state on top of the raw sql statement
  dplyr::filter(origin == "JFK", dest == "BQN" ) %>% 
  collect()

## # A tibble: 599 x 5
##    flight tailnum dep_time origin dest 
##     <int> <chr>      <int> <chr>  <chr>
##  1    839 N708JB        34 JFK    BQN  
##  2    939 N636JB       601 JFK    BQN  
##  3    839 N505JB        57 JFK    BQN  
##  4    939 N633JB       556 JFK    BQN  
##  5    839 N641JB       125 JFK    BQN  
##  6    939 N644JB       539 JFK    BQN  
##  7    839 N591JB        27 JFK    BQN  
##  8    939 N558JB       541 JFK    BQN  
##  9    939 N603JB       542 JFK    BQN  
## 10    839 N569JB      2357 JFK    BQN  
## # ... with 589 more rows
…
